{
    "KPackageStructure": "Plasma/Applet",
    "KPlugin": {
        "Authors": [
            {
                "Email": "hein@kde.org",
                "Name": "Eike Hein",
                "Name[ar]": "Eike Hein",
                "Name[az]": "Eike Hein",
                "Name[be]": "Eike Hein",
                "Name[bg]": "Eike Hein",
                "Name[ca@valencia]": "Eike Hein",
                "Name[ca]": "Eike Hein",
                "Name[cs]": "Eike Hein",
                "Name[da]": "Eike Hein",
                "Name[de]": "Eike Hein",
                "Name[en_GB]": "Eike Hein",
                "Name[eo]": "Eike Hein",
                "Name[es]": "Eike Hein",
                "Name[et]": "Eike Hein",
                "Name[eu]": "Eike Hein",
                "Name[fi]": "Eike Hein",
                "Name[fr]": "Eike Hein",
                "Name[gl]": "Eike Hein",
                "Name[he]": "אייק היין",
                "Name[hu]": "Eike Hein",
                "Name[ia]": "Eike Hein",
                "Name[id]": "Eike Hein",
                "Name[ie]": "Eike Hein",
                "Name[is]": "Eike Hein",
                "Name[it]": "Eike Hein",
                "Name[ja]": "Eike Hein",
                "Name[ka]": "აიკე ჰაინი",
                "Name[ko]": "Eike Hein",
                "Name[lt]": "Eike Hein",
                "Name[nl]": "Eike Hein",
                "Name[nn]": "Eike Hein",
                "Name[pa]": "ਇਕੀ ਹੀਇਨ",
                "Name[pl]": "Eike Hein",
                "Name[pt]": "Eike Hein",
                "Name[pt_BR]": "Eike Hein",
                "Name[ro]": "Eike Hein",
                "Name[ru]": "Eike Hein",
                "Name[sk]": "Eike Hein",
                "Name[sl]": "Eike Hein",
                "Name[sv]": "Eike Hein",
                "Name[ta]": "எய்கே ஹைன்",
                "Name[tr]": "Eike Hein",
                "Name[uk]": "Eike Hein",
                "Name[vi]": "Eike Hein",
                "Name[x-test]": "xxEike Heinxx",
                "Name[zh_CN]": "Eike Hein",
                "Name[zh_TW]": "Eike Hein"
            }
        ],
        "BugReportUrl": "https://bugs.kde.org/enter_bug.cgi?product=plasmashell&component=Window%20List",
        "Category": "Windows and Tasks",
        "Description": "Show open windows in a menu",
        "Description[ar]": "اعرض النوافذ المفتوحة في قائمة",
        "Description[az]": "Pəncərə açımasını menyuda göstərmək",
        "Description[be]": "Паказваць адкрытыя вокны ў меню",
        "Description[bg]": "Показване на меню с отворени прозорци",
        "Description[ca@valencia]": "Mostra les finestres obertes en un menú",
        "Description[ca]": "Mostra les finestres obertes en un menú",
        "Description[cs]": "Zobrazí otevřená okna v nabídce",
        "Description[da]": "Vis åbne vinduer i en menu",
        "Description[de]": "Offene Fenster in einem Menü anzeigen",
        "Description[en_GB]": "Show open windows in a menu",
        "Description[eo]": "Montri malfermitajn fenestrojn en menuo",
        "Description[es]": "Mostrar las ventanas abiertas en un menú",
        "Description[et]": "Avatud akende näitamine menüüs",
        "Description[eu]": "Erakutsi irekitako leihoak menu batean",
        "Description[fi]": "Näytä valikossa avoimet ikkunat",
        "Description[fr]": "Afficher les fenêtre ouvertes dans un menu",
        "Description[gl]": "Amosar as xanelas abertas nun menú.",
        "Description[he]": "הצגת חלונות פתוחים בתפריט",
        "Description[ia]": "Monstra fenestras aperite in un menu",
        "Description[id]": "Tampilkan jendela yang dibuka dalam sebuah menu",
        "Description[ie]": "Monstrar apertet fenestres in un menú",
        "Description[is]": "Sýna opna glugga í valmynd",
        "Description[it]": "Mostra le finestre aperte in un menu",
        "Description[ja]": "開かれたウィンドウをメニューで表示します",
        "Description[ka]": "მენიუში ღია ფანჯრების ჩვენება",
        "Description[ko]": "열린 창을 메뉴에 표시",
        "Description[lt]": "Rodyti meniu su atvertais langais",
        "Description[nl]": "Open vensters in een menu tonen",
        "Description[nn]": "Vis opne vindauge i ein meny",
        "Description[pl]": "Pokaż otwarte okna w menu",
        "Description[pt]": "Mostrar as janelas abertas num menu",
        "Description[pt_BR]": "Mostrar janelas abertas em um menu",
        "Description[ro]": "Arată ferestrele deschise într-un meniu",
        "Description[ru]": "Просмотр открытых окон в меню",
        "Description[sk]": "Zobrazenie otvorených okien v ponuke",
        "Description[sl]": "Prikaži odprta okna v meniju",
        "Description[sv]": "Visa öppna fönster i en meny",
        "Description[ta]": "திறக்கப்பட்டுள்ள சாளரங்களை ஓர் பட்டியில் காட்டும்",
        "Description[tr]": "Açık pencereleri bir menüde göster",
        "Description[uk]": "Показ відкритих вікон у меню",
        "Description[vi]": "Hiện danh sách các cửa sổ đang mở trong một trình đơn",
        "Description[x-test]": "xxShow open windows in a menuxx",
        "Description[zh_CN]": "在菜单中显示打开的窗口",
        "Description[zh_TW]": "以選單方式顯示開啟的視窗",
        "Icon": "preferences-system-windows",
        "Id": "org.kde.plasma.windowlist",
        "License": "GPL-2.0+",
        "Name": "Window List",
        "Name[ar]": "قائمة النّوافذ",
        "Name[bg]": "Списък прозорци",
        "Name[ca@valencia]": "Llista de finestres",
        "Name[ca]": "Llista de finestres",
        "Name[cs]": "Seznam oken",
        "Name[de]": "Fensterliste",
        "Name[en_GB]": "Window List",
        "Name[eo]": "Fenestra listo",
        "Name[es]": "Lista de ventanas",
        "Name[eu]": "Leiho-zerrenda",
        "Name[fi]": "Ikkunaluettelo",
        "Name[fr]": "Liste de fenêtres",
        "Name[gl]": "Lista de xanelas",
        "Name[he]": "רשימת חלונות",
        "Name[ia]": "Lista de fenestra",
        "Name[is]": "Gluggalisti",
        "Name[it]": "Elenco di finestre",
        "Name[ja]": "ウィンドウ一覧",
        "Name[ka]": "ფანჯრების სია",
        "Name[ko]": "창 목록",
        "Name[nl]": "Vensterlijst",
        "Name[nn]": "Vindaugsliste",
        "Name[pa]": "ਵਿੰਡੋ ਸੂਚੀ",
        "Name[pl]": "Spis okien",
        "Name[pt_BR]": "Lista de janelas",
        "Name[sk]": "Zoznam okien",
        "Name[sl]": "Okno seznama",
        "Name[ta]": "சாளரப் பட்டியல்",
        "Name[tr]": "Pencere Listesi",
        "Name[uk]": "Список вікон",
        "Name[x-test]": "xxWindow Listxx",
        "Name[zh_CN]": "窗口列表",
        "Name[zh_TW]": "視窗列表",
        "Website": "https://kde.org/plasma-desktop"
    },
    "X-Plasma-API-Minimum-Version": "6.0",
    "X-Plasma-Provides": [
        "org.kde.plasma.multitasking"
    ]
}
